…
  mutate(
    train = map(train, as_tibble),
    test = map(test, as_tibble))
cv_df = 
  cv_df %>% 
  mutate(proposed = map(train, ~lm(bwt ~ fincome+blength+gaweeks, data = birthweight_data)),
         compare_1 = map(train, ~lm(bwt ~ blength+gaweeks, data = birthweight_data)),
         compare_2  = map(train, ~lm(bwt ~ bhead + blength + babysex+ bhead*babysex + blength*babysex + bhead*blength + bhead*blength*babysex, data = birthweight_data))) %>%
  mutate(rmse_proposed = map2_dbl(proposed, test, ~rmse(model = .x, data = .y)),
         rmse_compare_1 = map2_dbl(compare_1, test, ~rmse(model = .x, data = .y)),
         rmse_compare_2 = map2_dbl(compare_2, test, ~rmse(model = .x, data = .y)))
cv_df
```

    ## # A tibble: 100 × 9
    ##    train    test     .id   proposed compare_1 compare_2 rmse_p…¹ rmse_…² rmse_…³
    ##    <list>   <list>   <chr> <list>   <list>    <list>       <dbl>   <dbl>   <dbl>
    ##  1 <tibble> <tibble> 001   <lm>     <lm>      <lm>          338.    340.    288.
    ##  2 <tibble> <tibble> 002   <lm>     <lm>      <lm>          316.    318.    279.
    ##  3 <tibble> <tibble> 003   <lm>     <lm>      <lm>          332.    336.    286.
    ##  4 <tibble> <tibble> 004   <lm>     <lm>      <lm>          309.    312.    265.
    ##  5 <tibble> <tibble> 005   <lm>     <lm>      <lm>          315.    320.    284.
    ##  6 <tibble> <tibble> 006   <lm>     <lm>      <lm>          322.    326.    283.
    ##  7 <tibble> <tibble> 007   <lm>     <lm>      <lm>          328.    328.    286.
    ##  8 <tibble> <tibble> 008   <lm>     <lm>      <lm>          338.    342.    286.
    ##  9 <tibble> <tibble> 009   <lm>     <lm>      <lm>          317.    319.    291.
    ## 10 <tibble> <tibble> 010   <lm>     <lm>      <lm>          320.    322.    286.
    ## # … with 90 more rows, and abbreviated variable names ¹​rmse_proposed,
    ## #   ²​rmse_compare_1, ³​rmse_compare_2
…
